#define icn_width 128
#define icn_height 128
static unsigned char icn_bits[] = {
   0x24, 0x49, 0x92, 0x24, 0x49, 0x92, 0x24, 0x49, 0x92, 0x24, 0x49, 0x92,
   0x24, 0x49, 0x92, 0x24, 0x00, 0x00, 0x00, 0x00, 0x00, 0x00, 0x00, 0x00,
   0x00, 0x00, 0x00, 0x00, 0x00, 0x00, 0x00, 0x40, 0x4a, 0x91, 0x22, 0x45,
   0x8a, 0x14, 0x29, 0x52, 0xa4, 0x48, 0x91, 0x22, 0x45, 0x8a, 0x14, 0x09,
   0x11, 0x00, 0x00, 0x00, 0x00, 0x00, 0x00, 0x00, 0x00, 0x00, 0x00, 0x00,
   0x00, 0x00, 0x00, 0x54, 0x14, 0x00, 0x00, 0x00, 0x00, 0x00, 0x00, 0x00,
   0x00, 0x00, 0x00, 0x00, 0x00, 0x00, 0x00, 0x00, 0x40, 0x00, 0x00, 0x00,
   0x00, 0x00, 0x00, 0x00, 0x00, 0x00, 0x00, 0x00, 0x00, 0x00, 0x00, 0x4a,
   0x0a, 0x00, 0x00, 0x00, 0x00, 0x00, 0x00, 0x00, 0x00, 0x00, 0x00, 0x00,
   0x00, 0x00, 0x00, 0x18, 0x98, 0x00, 0x00, 0x00, 0x00, 0x00, 0x00, 0x00,
   0x00, 0x00, 0x00, 0x00, 0x00, 0x00, 0x40, 0x59, 0x3a, 0x00, 0x00, 0x00,
   0x00, 0x00, 0x00, 0x00, 0x00, 0x00, 0x00, 0x00, 0x00, 0x00, 0x00, 0x1c,
   0xf8, 0x02, 0x00, 0x00, 0x00, 0x00, 0x00, 0x00, 0x00, 0x00, 0x00, 0x00,
   0x00, 0x00, 0xa0, 0x5e, 0xfa, 0x10, 0x00, 0x00, 0x00, 0x00, 0x00, 0x00,
   0x00, 0x00, 0x00, 0x00, 0x00, 0x00, 0x10, 0x1f, 0xf8, 0x03, 0x00, 0x00,
   0x00, 0x00, 0x00, 0x00, 0x00, 0x00, 0x00, 0x00, 0x00, 0x00, 0xa0, 0x5f,
   0xfa, 0x23, 0x00, 0x00, 0x00, 0x00, 0x00, 0x00, 0x00, 0x00, 0x00, 0x00,
   0x00, 0x00, 0xd4, 0x1f, 0xf8, 0x07, 0x00, 0x00, 0x00, 0x00, 0x00, 0x00,
   0x00, 0x00, 0x00, 0x00, 0x00, 0x00, 0xe8, 0x5f, 0xfa, 0x6f, 0x00, 0x00,
   0x00, 0x00, 0x00, 0x00, 0x00, 0x00, 0x00, 0x00, 0x00, 0x00, 0xf1, 0x1f,
   0xf8, 0x9f, 0x00, 0x00, 0x00, 0x00, 0x00, 0x00, 0x00, 0x00, 0x00, 0x00,
   0x00, 0x00, 0xfa, 0x5f, 0xfa, 0x3f, 0x00, 0x00, 0x00, 0x00, 0x00, 0x00,
   0x00, 0x00, 0x00, 0x00, 0x00, 0xc0, 0xfc, 0x1f, 0xf8, 0x7f, 0x02, 0x00,
   0x00, 0x00, 0x00, 0x00, 0x00, 0x00, 0x00, 0x00, 0x00, 0x10, 0xfe, 0x5f,
   0xfa, 0xff, 0x08, 0x00, 0x00, 0x00, 0x00, 0x00, 0x00, 0x00, 0x00, 0x00,
   0x00, 0x80, 0xff, 0x1f, 0xf8, 0xff, 0x01, 0x00, 0x00, 0x00, 0x00, 0x00,
   0x00, 0x00, 0x00, 0x00, 0x00, 0xa4, 0xff, 0x5f, 0xfa, 0xff, 0x1b, 0x00,
   0x00, 0x00, 0x00, 0x00, 0x00, 0x00, 0x00, 0x00, 0x00, 0xc0, 0xff, 0x1f,
   0xf8, 0xff, 0x07, 0x00, 0x00, 0x00, 0x00, 0x00, 0x00, 0x00, 0x00, 0x00,
   0x00, 0xe9, 0xff, 0x5f, 0xfa, 0xff, 0x5f, 0x00, 0x00, 0x00, 0x00, 0x00,
   0x00, 0x00, 0x00, 0x00, 0x00, 0xf2, 0xff, 0x1f, 0xf8, 0xff, 0x5f, 0x01,
   0x00, 0x00, 0x00, 0x00, 0x00, 0x00, 0x00, 0x00, 0x40, 0xf8, 0xff, 0x5f,
   0xfa, 0xff, 0x3f, 0x04, 0x00, 0x00, 0x00, 0x00, 0x00, 0x00, 0x00, 0x00,
   0x00, 0xfd, 0xff, 0x1f, 0xf8, 0xff, 0x7f, 0x00, 0x00, 0x00, 0x00, 0x00,
   0x00, 0x00, 0x00, 0x00, 0x20, 0xfe, 0xff, 0x5f, 0xfa, 0xff, 0xff, 0x12,
   0x00, 0x00, 0x00, 0x00, 0x00, 0x00, 0x00, 0x00, 0x90, 0xff, 0xff, 0x1f,
   0xf8, 0xff, 0xff, 0x01, 0x00, 0x00, 0x00, 0x00, 0x00, 0x00, 0x00, 0x00,
   0x80, 0xff, 0xff, 0x5f, 0xfa, 0xff, 0xff, 0x2b, 0x00, 0x00, 0x00, 0x00,
   0x00, 0x00, 0x00, 0x00, 0xd4, 0xff, 0xff, 0x1f, 0xf8, 0xff, 0xff, 0x07,
   0x00, 0x00, 0x00, 0x00, 0x00, 0x00, 0x00, 0x00, 0xe8, 0xff, 0xff, 0x5f,
   0xfa, 0xff, 0xff, 0x6f, 0x00, 0x00, 0x00, 0x00, 0x00, 0x00, 0x00, 0x00,
   0xf1, 0xff, 0xff, 0x1f, 0xf8, 0xff, 0xff, 0x9f, 0x00, 0x00, 0x00, 0x00,
   0x00, 0x00, 0x00, 0x00, 0xfa, 0xff, 0xff, 0x5f, 0xfa, 0xff, 0xff, 0x3f,
   0x02, 0x00, 0x00, 0x00, 0x00, 0x00, 0x00, 0x40, 0xfc, 0xdf, 0xff, 0x1f,
   0xf8, 0xff, 0xff, 0x7f, 0x00, 0x00, 0x00, 0x00, 0x00, 0x00, 0x00, 0x80,
   0xfe, 0xff, 0xfe, 0x5f, 0xfa, 0xff, 0xff, 0xff, 0x06, 0x00, 0x00, 0x00,
   0x00, 0x00, 0x00, 0x10, 0xff, 0xff, 0xff, 0x1f, 0xf8, 0xff, 0xff, 0xff,
   0x01, 0x00, 0x00, 0x00, 0x00, 0x00, 0x00, 0xa0, 0xff, 0xff, 0xff, 0x5f,
   0xfa, 0xfe, 0xff, 0xff, 0x17, 0x00, 0x00, 0x00, 0x00, 0x00, 0x00, 0xc4,
   0xff, 0xff, 0xff, 0x1f, 0xf8, 0xff, 0xff, 0xff, 0x27, 0x00, 0x00, 0x00,
   0x00, 0x00, 0x00, 0xe8, 0xff, 0xff, 0xff, 0x5f, 0xfa, 0xff, 0xff, 0xff,
   0x8f, 0x00, 0x00, 0x00, 0x00, 0x00, 0x00, 0xf1, 0xff, 0xff, 0xff, 0x1f,
   0xf8, 0xff, 0xff, 0xff, 0x1f, 0x00, 0x00, 0x00, 0x00, 0x00, 0x00, 0xfa,
   0xff, 0xff, 0xff, 0x5f, 0xfa, 0xef, 0xff, 0xff, 0xbf, 0x01, 0x00, 0x00,
   0x00, 0x00, 0x40, 0xfc, 0xff, 0xff, 0xff, 0x1f, 0xf8, 0xff, 0xff, 0xff,
   0x7f, 0x02, 0x00, 0x00, 0x00, 0x00, 0x80, 0xfe, 0xff, 0xff, 0xfd, 0x5f,
   0xfa, 0xff, 0xff, 0xff, 0xff, 0x08, 0x00, 0x00, 0x00, 0x00, 0x10, 0xff,
   0xfb, 0xff, 0xff, 0x1f, 0xf8, 0xff, 0xff, 0xff, 0xff, 0x01, 0x00, 0x00,
   0x00, 0x00, 0xa0, 0xff, 0xff, 0xff, 0xff, 0x5f, 0xfa, 0xff, 0xff, 0xff,
   0xff, 0x1b, 0x00, 0x00, 0x00, 0x00, 0xc4, 0xff, 0xff, 0xff, 0xff, 0x1f,
   0xf8, 0xff, 0xfe, 0xff, 0xff, 0x07, 0x00, 0x00, 0x00, 0x00, 0xe8, 0xff,
   0xff, 0xfd, 0xff, 0x5f, 0xfa, 0xff, 0xff, 0xff, 0xff, 0x5f, 0x00, 0x00,
   0x00, 0x00, 0xf1, 0xff, 0xff, 0xff, 0xff, 0x1f, 0xf8, 0xff, 0xff, 0xff,
   0xff, 0x9f, 0x00, 0x00, 0x00, 0x00, 0xfa, 0xff, 0xff, 0xff, 0xff, 0x5f,
   0xfa, 0xff, 0xff, 0xff, 0xff, 0x3f, 0x02, 0x00, 0x00, 0x40, 0xfc, 0xff,
   0xff, 0xff, 0xff, 0x1f, 0xf8, 0xff, 0xf7, 0xff, 0xff, 0x7f, 0x00, 0x00,
   0x00, 0x80, 0xfe, 0xff, 0xfb, 0xff, 0xfe, 0x5f, 0xfa, 0xfe, 0xff, 0xff,
   0xff, 0xff, 0x06, 0x00, 0x00, 0x10, 0xff, 0xff, 0xff, 0xff, 0xff, 0x1f,
   0xf8, 0xff, 0x7f, 0xff, 0xff, 0xff, 0x09, 0x00, 0x00, 0xa0, 0xff, 0xfe,
   0xff, 0xff, 0xff, 0x5f, 0xfa, 0xff, 0xff, 0xff, 0xff, 0xff, 0x03, 0x00,
   0x00, 0xc4, 0xff, 0xff, 0xff, 0xff, 0xff, 0x1f, 0xf8, 0xff, 0xff, 0xff,
   0xff, 0xff, 0x5f, 0x00, 0x00, 0xe8, 0xff, 0xff, 0xff, 0xff, 0xff, 0x5f,
   0xfa, 0xff, 0xff, 0xff, 0xff, 0xff, 0x0f, 0x00, 0x00, 0xf1, 0xff, 0xff,
   0x7f, 0xff, 0xff, 0x1f, 0xf8, 0xff, 0xff, 0xff, 0xff, 0xff, 0x9f, 0x00,
   0x00, 0xfa, 0xff, 0xff, 0xff, 0xff, 0xff, 0x5f, 0xfa, 0xff, 0xff, 0xfd,
   0xff, 0xff, 0x3f, 0x00, 0x80, 0xfc, 0xff, 0xff, 0xff, 0xff, 0xfd, 0x1f,
   0xf8, 0xff, 0xff, 0xff, 0xff, 0xff, 0xff, 0x02, 0x00, 0xfe, 0xff, 0xf7,
   0xff, 0xff, 0xff, 0x5f, 0xfa, 0xfb, 0xff, 0xbf, 0xff, 0xff, 0xff, 0x08,
   0x50, 0xff, 0xff, 0xff, 0xff, 0xff, 0xff, 0x1f, 0xf8, 0xff, 0xff, 0xff,
   0xff, 0xff, 0xff, 0x01, 0x80, 0xff, 0xff, 0x7f, 0xff, 0xff, 0xff, 0x5f,
   0xfa, 0xff, 0xff, 0xff, 0xff, 0xff, 0xff, 0x2b, 0xc4, 0xff, 0xff, 0xff,
   0xff, 0xfd, 0xff, 0x1f, 0xf8, 0xff, 0xff, 0xff, 0xff, 0xff, 0xff, 0x07,
   0xe8, 0xff, 0xfe, 0xff, 0xff, 0xff, 0xff, 0x5f, 0xfa, 0xbf, 0xff, 0xff,
   0xfb, 0xff, 0xff, 0x6f, 0xf1, 0xff, 0xff, 0xff, 0xff, 0xff, 0xff, 0x1f,
   0xf8, 0xff, 0xff, 0xff, 0xff, 0xff, 0xff, 0x1f, 0xfa, 0xff, 0xff, 0xff,
   0xff, 0xff, 0xff, 0x5f, 0xfa, 0xff, 0xff, 0xff, 0xff, 0xff, 0xff, 0x5f,
   0xf9, 0xff, 0xff, 0xff, 0xff, 0xff, 0xff, 0x1f, 0xf8, 0xff, 0xff, 0xff,
   0xff, 0xff, 0xff, 0x2f, 0xf2, 0xff, 0xef, 0xff, 0xff, 0x7f, 0xff, 0x5f,
   0xfa, 0xff, 0xfb, 0xff, 0xdf, 0xff, 0xff, 0x87, 0xe2, 0xff, 0xff, 0xff,
   0xfd, 0xff, 0xff, 0x1f, 0xf8, 0xff, 0xbf, 0xff, 0xff, 0xfd, 0xff, 0x17,
   0xc8, 0xff, 0xff, 0xff, 0xff, 0xff, 0xff, 0x5f, 0xfa, 0xff, 0xff, 0xff,
   0xff, 0xff, 0xff, 0x09, 0x80, 0xff, 0xff, 0xff, 0xff, 0xff, 0xff, 0x1f,
   0xf8, 0xff, 0xff, 0xfb, 0xff, 0xff, 0xff, 0x01, 0x20, 0xff, 0xff, 0xff,
   0x7f, 0xff, 0xff, 0x5f, 0xfa, 0xff, 0xff, 0xff, 0xff, 0xff, 0x7f, 0x0a,
   0x00, 0xfe, 0x7f, 0xff, 0xff, 0xff, 0xfd, 0x1f, 0xf8, 0xfe, 0xff, 0xff,
   0xff, 0xff, 0x7f, 0x00, 0x20, 0xfc, 0xff, 0xff, 0xff, 0xff, 0xff, 0x5f,
   0xfa, 0xff, 0xff, 0xff, 0xff, 0xff, 0x9f, 0x02, 0x80, 0xf8, 0xff, 0xff,
   0xff, 0xff, 0xff, 0x1f, 0xf8, 0xff, 0xff, 0xff, 0xff, 0xff, 0x1f, 0x00,
   0x00, 0xf0, 0xff, 0xff, 0xff, 0xff, 0xff, 0x5f, 0xfa, 0xff, 0xff, 0xff,
   0xff, 0xf7, 0xa7, 0x00, 0x00, 0xe1, 0xff, 0xff, 0xff, 0xff, 0xff, 0x1f,
   0xf8, 0xff, 0xff, 0xdf, 0xff, 0xff, 0x03, 0x00, 0x00, 0xcc, 0xff, 0xbd,
   0xff, 0xff, 0xff, 0x5f, 0xfa, 0xff, 0xff, 0xff, 0xff, 0xff, 0x09, 0x00,
   0x00, 0x90, 0xff, 0xff, 0xff, 0xfd, 0xff, 0x1f, 0xf8, 0xfb, 0xff, 0xff,
   0xff, 0xff, 0x00, 0x00, 0x00, 0x20, 0xff, 0xff, 0xff, 0xff, 0xff, 0x5f,
   0xfa, 0xff, 0xff, 0xff, 0xff, 0x7f, 0x0a, 0x00, 0x00, 0x20, 0xfe, 0xff,
   0xff, 0xff, 0xff, 0x1f, 0xf8, 0x7f, 0xff, 0xff, 0xfb, 0x3f, 0x00, 0x00,
   0x00, 0x00, 0xfc, 0xff, 0xff, 0xff, 0xfd, 0x5f, 0xfa, 0xff, 0xbf, 0xff,
   0xff, 0x9f, 0x00, 0x00, 0x00, 0x40, 0xf8, 0xff, 0xfd, 0xff, 0xff, 0x1f,
   0xf8, 0xff, 0xff, 0xff, 0xff, 0x0f, 0x00, 0x00, 0x00, 0x80, 0xf0, 0xff,
   0xff, 0xff, 0xff, 0x5f, 0xfa, 0xff, 0xff, 0xff, 0xff, 0xa7, 0x00, 0x00,
   0x00, 0x00, 0xe2, 0xff, 0xff, 0xff, 0xff, 0x1f, 0xf8, 0xff, 0xff, 0xff,
   0xff, 0x03, 0x00, 0x00, 0x00, 0x00, 0xc8, 0xff, 0xff, 0xfb, 0xff, 0x5f,
   0xfa, 0xff, 0xff, 0xff, 0xff, 0x09, 0x00, 0x00, 0x00, 0x00, 0x80, 0xff,
   0xff, 0xff, 0xff, 0x1f, 0xf8, 0xff, 0xff, 0xff, 0xff, 0x00, 0x00, 0x00,
   0x00, 0x00, 0x08, 0xff, 0xff, 0xff, 0xff, 0x5f, 0xfa, 0xff, 0xff, 0xfd,
   0x77, 0x0a, 0x00, 0x00, 0x00, 0x00, 0x20, 0xfe, 0xff, 0xff, 0xff, 0x1f,
   0xf8, 0xff, 0xff, 0xff, 0x3f, 0x00, 0x00, 0x00, 0x00, 0x00, 0x80, 0xfc,
   0xff, 0x7f, 0xff, 0x5f, 0xfa, 0xdf, 0xff, 0xff, 0x9f, 0x00, 0x00, 0x00,
   0x00, 0x00, 0x00, 0xf8, 0xfb, 0xff, 0xff, 0x1f, 0xf8, 0xff, 0xff, 0xff,
   0x1f, 0x00, 0x00, 0x00, 0x00, 0x00, 0x80, 0xf0, 0xff, 0xff, 0xff, 0x5f,
   0xfa, 0xff, 0xff, 0xff, 0xa7, 0x00, 0x00, 0x00, 0x00, 0x00, 0x00, 0xe2,
   0xff, 0xff, 0xff, 0x1f, 0xb8, 0xff, 0xff, 0xfb, 0x07, 0x00, 0x00, 0x00,
   0x00, 0x00, 0x00, 0xc0, 0xff, 0xff, 0xff, 0x5f, 0xfa, 0xff, 0xfe, 0xff,
   0x09, 0x00, 0x00, 0x00, 0x00, 0x00, 0x00, 0x84, 0xff, 0xff, 0xff, 0x1f,
   0xf8, 0xff, 0xff, 0xff, 0x01, 0x00, 0x00, 0x00, 0x00, 0x00, 0x00, 0x30,
   0xff, 0xff, 0xfd, 0x5f, 0xfa, 0xff, 0xff, 0x7f, 0x0a, 0x00, 0x00, 0x00,
   0x00, 0x00, 0x00, 0x40, 0x7e, 0xff, 0xff, 0x1f, 0xf8, 0xff, 0xff, 0x3f,
   0x00, 0x00, 0x00, 0x00, 0x00, 0x00, 0x00, 0xc0, 0xfc, 0xff, 0xff, 0x5f,
   0xfa, 0xff, 0xff, 0x9f, 0x00, 0x00, 0x00, 0x00, 0x00, 0x00, 0x00, 0x00,
   0xf9, 0xff, 0xff, 0x1f, 0xf8, 0xff, 0xff, 0x0f, 0x00, 0x00, 0x00, 0x00,
   0x00, 0x00, 0x00, 0x00, 0xf2, 0xff, 0xff, 0x5f, 0xfa, 0xff, 0xff, 0xa7,
   0x00, 0x00, 0x00, 0x00, 0x00, 0x00, 0x00, 0x00, 0xe2, 0xff, 0xff, 0x1f,
   0xf8, 0x7f, 0xff, 0x03, 0x00, 0x00, 0x00, 0x00, 0x00, 0x00, 0x00, 0x00,
   0xc8, 0xff, 0xff, 0x5f, 0xfa, 0xff, 0xff, 0x09, 0x00, 0x00, 0x00, 0x00,
   0x00, 0x00, 0x00, 0x00, 0x80, 0xff, 0xff, 0x1f, 0x78, 0xff, 0xff, 0x00,
   0x00, 0x00, 0x00, 0x00, 0x00, 0x00, 0x00, 0x00, 0x08, 0xff, 0xfe, 0x5f,
   0xfa, 0xff, 0x77, 0x0a, 0x00, 0x00, 0x00, 0x00, 0x00, 0x00, 0x00, 0x00,
   0x20, 0xfe, 0xff, 0x1f, 0xf8, 0xff, 0x3f, 0x00, 0x00, 0x00, 0x00, 0x00,
   0x00, 0x00, 0x00, 0x00, 0x00, 0xfc, 0xff, 0x5f, 0xfa, 0xff, 0x9f, 0x00,
   0x00, 0x00, 0x00, 0x00, 0x00, 0x00, 0x00, 0x00, 0x40, 0xf8, 0xff, 0x1f,
   0xf8, 0xff, 0x1f, 0x00, 0x00, 0x00, 0x00, 0x00, 0x00, 0x00, 0x00, 0x00,
   0x00, 0xf3, 0xff, 0x5f, 0xfa, 0xff, 0xa7, 0x00, 0x00, 0x00, 0x00, 0x00,
   0x00, 0x00, 0x00, 0x00, 0x00, 0xe4, 0xff, 0x1f, 0xf8, 0xff, 0x07, 0x00,
   0x00, 0x00, 0x00, 0x00, 0x00, 0x00, 0x00, 0x00, 0x00, 0xc8, 0xff, 0x5f,
   0xfa, 0xff, 0x09, 0x00, 0x00, 0x00, 0x00, 0x00, 0x00, 0x00, 0x00, 0x00,
   0x00, 0x88, 0xff, 0x1f, 0xf8, 0xff, 0x01, 0x00, 0x00, 0x00, 0x00, 0x00,
   0x00, 0x00, 0x00, 0x00, 0x00, 0x00, 0xff, 0x5f, 0xfa, 0x7d, 0x0a, 0x00,
   0x00, 0x00, 0x00, 0x00, 0x00, 0x00, 0x00, 0x00, 0x00, 0x10, 0xfe, 0x1f,
   0xf8, 0x3f, 0x00, 0x00, 0x00, 0x00, 0x00, 0x00, 0x00, 0x00, 0x00, 0x00,
   0x00, 0xc0, 0xfc, 0x5f, 0xfa, 0x9f, 0x00, 0x00, 0x00, 0x00, 0x00, 0x00,
   0x00, 0x00, 0x00, 0x00, 0x00, 0x00, 0xf9, 0x1f, 0xf8, 0x1f, 0x00, 0x00,
   0x00, 0x00, 0x00, 0x00, 0x00, 0x00, 0x00, 0x00, 0x00, 0x00, 0xf2, 0x5f,
   0xfa, 0xa7, 0x00, 0x00, 0x00, 0x00, 0x00, 0x00, 0x00, 0x00, 0x00, 0x00,
   0x00, 0x00, 0xe2, 0x1f, 0xf8, 0x07, 0x00, 0x00, 0x00, 0x00, 0x00, 0x00,
   0x00, 0x00, 0x00, 0x00, 0x00, 0x00, 0xc4, 0x5f, 0xfa, 0x09, 0x00, 0x00,
   0x00, 0x00, 0x00, 0x00, 0x00, 0x00, 0x00, 0x00, 0x00, 0x00, 0x90, 0x1f,
   0xf8, 0x01, 0x00, 0x00, 0x00, 0x00, 0x00, 0x00, 0x00, 0x00, 0x00, 0x00,
   0x00, 0x00, 0x20, 0x5f, 0x7a, 0x0a, 0x00, 0x00, 0x00, 0x00, 0x00, 0x00,
   0x00, 0x00, 0x00, 0x00, 0x00, 0x00, 0xa0, 0x1e, 0x78, 0x00, 0x00, 0x00,
   0x00, 0x00, 0x00, 0x00, 0x00, 0x00, 0x00, 0x00, 0x00, 0x00, 0x80, 0x5c,
   0x9a, 0x00, 0x00, 0x00, 0x00, 0x00, 0x00, 0x00, 0x00, 0x00, 0x00, 0x00,
   0x00, 0x00, 0x00, 0x1a, 0x18, 0x00, 0x00, 0x00, 0x00, 0x00, 0x00, 0x00,
   0x00, 0x00, 0x00, 0x00, 0x00, 0x00, 0x80, 0x54, 0x42, 0x00, 0x00, 0x00,
   0x00, 0x00, 0x00, 0x00, 0x00, 0x00, 0x00, 0x00, 0x00, 0x00, 0x00, 0x10,
   0x08, 0x00, 0x00, 0x00, 0x00, 0x00, 0x00, 0x00, 0x00, 0x00, 0x00, 0x00,
   0x00, 0x00, 0x00, 0x42, 0x2a, 0x00, 0x00, 0x00, 0x00, 0x00, 0x00, 0x00,
   0x00, 0x00, 0x00, 0x00, 0x00, 0x00, 0x00, 0x08, 0x00, 0x00, 0x00, 0x00,
   0x00, 0x00, 0x00, 0x00, 0x00, 0x00, 0x00, 0x00, 0x00, 0x00, 0x00, 0x40,
   0xb2, 0x55, 0x55, 0x55, 0x55, 0x6b, 0xd5, 0x5a, 0xb5, 0x56, 0x55, 0xad,
   0xb5, 0x56, 0x55, 0x0b, 0x04, 0x00, 0x00, 0x00, 0x00, 0x00, 0x00, 0x00,
   0x00, 0x00, 0x00, 0x00, 0x00, 0x00, 0x00, 0x50 };
