{
	"Cstdj json": {
		"url": "https://dj-bauer.de",
		"commands": "./build/json"
	},
    "Bash JSON.sh 2016-08-12":
        {
            "url":"https://github.com/dominictarr/JSON.sh",
            "commands":["tests/JSONTestSuite/parsers/test_Bash_JSON/JSON.sh"],
            "use_stdin": true
    }
}
